…
```r
#Count the most common words and notice that prior to removing stop-words, the most common words are things like "the", "a", etc... 
prez_token %>% count(word, sort = TRUE)
```

```
## # A tibble: 4,924 x 2
##    word      n
##    <chr> <int>
##  1 the    2519
##  2 of     1726
##  3 and    1375
##  4 to     1208
##  5 in      738
##  6 our     618
##  7 a       578
##  8 we      494
##  9 that    462
## 10 be      429
## # ... with 4,914 more rows
```
…
```
## Joining, by = "word"
```

```r
#After removing stop words, now use count to find most common words in the inaugural data
prez_nostops %>% count(word, sort = TRUE)
```

```
## # A tibble: 4,442 x 2
##    word           n
##    <chr>      <int>
##  1 government   154
##  2 people       151
##  3 0097         126
##  4 world         85
##  5 country       76
##  6 public        73
##  7 nation        69
##  8 citizens      67
##  9 time          60
## 10 peace         58
## # ... with 4,432 more rows
```
…
```
## Joining, by = "word"
```

```r
  # This get filters out all numbers. 
prez_nostops_filtered <- prez_nostops %>% filter(word %in% str_subset(prez_nostops$word, "\\D"))

#now lets see the top words again and make sure "0097" is not present anymore.
prez_nostops_customstop %>%
  count(word, sort = TRUE)
```

```
## # A tibble: 4,441 x 2
##    word           n
##    <chr>      <int>
##  1 government   154
##  2 people       151
##  3 world         85
##  4 country       76
##  5 public        73
##  6 nation        69
##  7 citizens      67
##  8 time          60
##  9 peace         58
## 10 free          55
## # ... with 4,431 more rows
```

```r
prez_nostops_filtered %>%
  count(word, sort = TRUE)
```

```
## # A tibble: 4,437 x 2
##    word           n
##    <chr>      <int>
##  1 government   154
##  2 people       151
##  3 world         85
##  4 country       76
##  5 public        73
##  6 nation        69
##  7 citizens      67
##  8 time          60
##  9 peace         58
## 10 free          55
## # ... with 4,427 more rows
```
…
